{
        "trademarkList": [
            {
                "tmId": 1,
                "tmName": "苹果"
            }
        ],
        "attrsList": [
            {
                "attrId": 1,
                "attrValueList": [
                    "4500-11999",
                    "2800-4499"
                ],
                "attrName": "价格"
            }
        ],
        "goodsList": [
            {
                "id": 1,
                "defaultImg": "https://s2.loli.net/2022/11/27/SdAPiMOEJ3FLfTt.jpg",
                "title": "正经图",
                "price": 299,
                "createTime": null,
                "tmId": null,
                "tmName": null,
                "category1Id": null,
                "category1Name": null,
                "category2Id": null,
                "category2Name": null,
                "category3Id": null,
                "category3Name": null,
                "hotScore": 0,
                "attrs": null
            },
            {
                "id": 2,
                "defaultImg": "https://pixiv.re/100315042-1.png",
                "title": "色！",
                "price": 5499,
                "createTime": null,
                "tmId": null,
                "tmName": null,
                "category1Id": null,
                "category1Name": null,
                "category2Id": null,
                "category2Name": null,
                "category3Id": null,
                "category3Name": null,
                "hotScore": 0,
                "attrs": null
            },
            {
                "id": 3,
                "defaultImg": "https://pixiv.re/100315042-1.png",
                "title": "Apple iPhone 11 (A2223)",
                "price": 5499,
                "createTime": null,
                "tmId": null,
                "tmName": null,
                "category1Id": null,
                "category1Name": null,
                "category2Id": null,
                "category2Name": null,
                "category3Id": null,
                "category3Name": null,
                "hotScore": 0,
                "attrs": null
            },
            {
                "id": 4,
                "defaultImg": "https://pixiv.re/100315042-1.png",
                "title": "Apple iPhone 11 (A2223) Apple iPhone 11 (A2223) Apple iPhone 11 (A2223) Apple iPhone 11 (A2223)",
                "price": 5499,
                "createTime": null,
                "tmId": null,
                "tmName": null,
                "category1Id": null,
                "category1Name": null,
                "category2Id": null,
                "category2Name": null,
                "category3Id": null,
                "category3Name": null,
                "hotScore": 0,
                "attrs": null
            },
            {
                "id": 5,
                "defaultImg": "https://pixiv.re/100315042-1.png",
                "title": "Apple iPhone 11 (A2223)",
                "price": 5499,
                "createTime": null,
                "tmId": null,
                "tmName": null,
                "category1Id": null,
                "category1Name": null,
                "category2Id": null,
                "category2Name": null,
                "category3Id": null,
                "category3Name": null,
                "hotScore": 0,
                "attrs": null
            },
            {
                "id": 6,
                "defaultImg": "https://pixiv.re/100315042-1.png",
                "title": "Apple iPhone 11 (A2223)",
                "price": 5499,
                "createTime": null,
                "tmId": null,
                "tmName": null,
                "category1Id": null,
                "category1Name": null,
                "category2Id": null,
                "category2Name": null,
                "category3Id": null,
                "category3Name": null,
                "hotScore": 0,
                "attrs": null
            },
            {
                "id": 7,
                "defaultImg": "https://pixiv.re/100315042-1.png",
                "title": "Apple iPhone 11 (A2223)",
                "price": 5499,
                "createTime": null,
                "tmId": null,
                "tmName": null,
                "category1Id": null,
                "category1Name": null,
                "category2Id": null,
                "category2Name": null,
                "category3Id": null,
                "category3Name": null,
                "hotScore": 0,
                "attrs": null
            },
            {
                "id": 8,
                "defaultImg": "https://pixiv.re/100315042-1.png",
                "title": "Apple iPhone 11 (A2223)",
                "price": 5499,
                "createTime": null,
                "tmId": null,
                "tmName": null,
                "category1Id": null,
                "category1Name": null,
                "category2Id": null,
                "category2Name": null,
                "category3Id": null,
                "category3Name": null,
                "hotScore": 0,
                "attrs": null
            },
            {
                "id": 9,
                "defaultImg": "https://pixiv.re/100315042-1.png",
                "title": "Apple iPhone 11 (A2223)",
                "price": 5499,
                "createTime": null,
                "tmId": null,
                "tmName": null,
                "category1Id": null,
                "category1Name": null,
                "category2Id": null,
                "category2Name": null,
                "category3Id": null,
                "category3Name": null,
                "hotScore": 0,
                "attrs": null
            },
            {
                "id": 10,
                "defaultImg": "https://pixiv.re/100315042-1.png",
                "title": "Apple iPhone 11 (A2223)",
                "price": 5499,
                "createTime": null,
                "tmId": null,
                "tmName": null,
                "category1Id": null,
                "category1Name": null,
                "category2Id": null,
                "category2Name": null,
                "category3Id": null,
                "category3Name": null,
                "hotScore": 0,
                "attrs": null
            }
        ],
        "total": 26,
        "pageSize": 10,
        "pageNo": 1,
        "totalPages": 3
    
}